\relax 
\providecommand\hyper@newdestlabel[2]{}
\providecommand\HyperFirstAtBeginDocument{\AtBeginDocument}
\HyperFirstAtBeginDocument{\ifx\hyper@anchor\@undefined
\global\let\oldcontentsline\contentsline
\gdef\contentsline#1#2#3#4{\oldcontentsline{#1}{#2}{#3}}
\global\let\oldnewlabel\newlabel
\gdef\newlabel#1#2{\newlabelxx{#1}#2}
\gdef\newlabelxx#1#2#3#4#5#6{\oldnewlabel{#1}{{#2}{#3}}}
\AtEndDocument{\ifx\hyper@anchor\@undefined
\let\contentsline\oldcontentsline
\let\newlabel\oldnewlabel
\fi}
\fi}
\global\let\hyper@last\relax 
\gdef\HyperFirstAtBeginDocument#1{#1}
\providecommand\HyField@AuxAddToFields[1]{}
\providecommand\HyField@AuxAddToCoFields[2]{}
\select@language{american}
\@writefile{toc}{\select@language{american}}
\@writefile{lof}{\select@language{american}}
\@writefile{lot}{\select@language{american}}
\@writefile{toc}{\contentsline {chapter}{\numberline {1}Introduction}{1}{chapter.1}}
\@writefile{lof}{\addvspace {10\p@ }}
\@writefile{lot}{\addvspace {10\p@ }}
\@writefile{lol}{\addvspace {10\p@ }}
\@writefile{loalgorithm}{\addvspace {10\p@ }}
\@writefile{loa}{\addvspace {10\p@ }}
\@writefile{loListing}{\addvspace {10\p@ }}
\@writefile{code}{\addvspace {10\p@ }}
\@writefile{loAlgorithmus}{\addvspace {10\p@ }}
\@writefile{alg}{\addvspace {10\p@ }}
\providecommand*\caption@xref[2]{\@setref\relax\@undefined{#1}}
\newlabel{abbreviations}{{\caption@xref {abbreviations}{ on input line 38}}{3}{Abbreviations}{table.caption.10}{}}
\newlabel{abbreviations@cref}{{[chapter][1][]1}{3}}
\citation{Kubitza2015n}
\@writefile{toc}{\contentsline {chapter}{\numberline {2}Background}{5}{chapter.2}}
\@writefile{lof}{\addvspace {10\p@ }}
\@writefile{lot}{\addvspace {10\p@ }}
\@writefile{lol}{\addvspace {10\p@ }}
\@writefile{loalgorithm}{\addvspace {10\p@ }}
\@writefile{loa}{\addvspace {10\p@ }}
\@writefile{loListing}{\addvspace {10\p@ }}
\@writefile{code}{\addvspace {10\p@ }}
\@writefile{loAlgorithmus}{\addvspace {10\p@ }}
\@writefile{alg}{\addvspace {10\p@ }}
\newlabel{chap:background}{{2}{5}{Background}{chapter.2}{}}
\newlabel{chap:background@cref}{{[chapter][2][]2}{5}}
\@writefile{toc}{\contentsline {section}{\numberline {2.1}MeSch EU Project}{5}{section.2.1}}
\newlabel{sec:meschproject}{{2.1}{5}{MeSch EU Project}{section.2.1}{}}
\newlabel{sec:meschproject@cref}{{[section][1][2]2.1}{5}}
\@writefile{toc}{\contentsline {section}{\numberline {2.2}MeSchup Platform}{6}{section.2.2}}
\newlabel{sec:meschplatform}{{2.2}{6}{MeSchup Platform}{section.2.2}{}}
\newlabel{sec:meschplatform@cref}{{[section][2][2]2.2}{6}}
\@writefile{brf}{\backcite{Kubitza2015n}{{6}{2.2}{section.2.2}}}
\citation{Pinhanez2001a}
\citation{Pinhanez2001a}
\citation{Sukaviriya2003}
\citation{Tokuda2003a}
\citation{Choi2013}
\@writefile{toc}{\contentsline {chapter}{\numberline {3}Related Work}{7}{chapter.3}}
\@writefile{lof}{\addvspace {10\p@ }}
\@writefile{lot}{\addvspace {10\p@ }}
\@writefile{lol}{\addvspace {10\p@ }}
\@writefile{loalgorithm}{\addvspace {10\p@ }}
\@writefile{loa}{\addvspace {10\p@ }}
\@writefile{loListing}{\addvspace {10\p@ }}
\@writefile{code}{\addvspace {10\p@ }}
\@writefile{loAlgorithmus}{\addvspace {10\p@ }}
\@writefile{alg}{\addvspace {10\p@ }}
\newlabel{chap:relwork}{{3}{7}{Related Work}{chapter.3}{}}
\newlabel{chap:relwork@cref}{{[chapter][3][]3}{7}}
\@writefile{toc}{\contentsline {section}{\numberline {3.1}Ubiquitous Displays}{7}{section.3.1}}
\newlabel{sec:ud}{{3.1}{7}{Ubiquitous Displays}{section.3.1}{}}
\newlabel{sec:ud@cref}{{[section][1][3]3.1}{7}}
\@writefile{brf}{\backcite{Pinhanez2001a}{{7}{3.1}{section.3.1}}}
\@writefile{brf}{\backcite{Pinhanez2001a}{{7}{3.1}{section.3.1}}}
\@writefile{brf}{\backcite{Sukaviriya2003}{{7}{3.1}{section.3.1}}}
\@writefile{brf}{\backcite{Tokuda2003a}{{7}{3.1}{section.3.1}}}
\citation{Campbell2014}
\citation{Pinhanez2001a}
\citation{Tokuda2003a}
\citation{Choi2013}
\citation{Campbell2014}
\citation{Benavides2014}
\@writefile{brf}{\backcite{Choi2013}{{8}{3.1}{section.3.1}}}
\@writefile{brf}{\backcite{Campbell2014}{{8}{3.1}{section.3.1}}}
\@writefile{brf}{\backcite{Pinhanez2001a}{{8}{3.1}{section.3.1}}}
\@writefile{brf}{\backcite{Tokuda2003a}{{8}{3.1}{section.3.1}}}
\@writefile{brf}{\backcite{Choi2013}{{8}{3.1}{section.3.1}}}
\@writefile{brf}{\backcite{Campbell2014}{{8}{3.1}{section.3.1}}}
\citation{Kubitza2013a}
\citation{Benavides2014}
\citation{Kubitza2013a}
\citation{Styliaras2007}
\@writefile{toc}{\contentsline {section}{\numberline {3.2}Interactivity through sensors and actuators}{9}{section.3.2}}
\@writefile{brf}{\backcite{Benavides2014}{{9}{3.2}{section.3.2}}}
\@writefile{brf}{\backcite{Kubitza2013a}{{9}{3.2}{section.3.2}}}
\@writefile{brf}{\backcite{Benavides2014}{{9}{3.2}{section.3.2}}}
\@writefile{brf}{\backcite{Kubitza2013a}{{9}{3.2}{section.3.2}}}
\@writefile{toc}{\contentsline {section}{\numberline {3.3}Content delivery}{9}{section.3.3}}
\@writefile{brf}{\backcite{Styliaras2007}{{9}{3.3}{section.3.3}}}
\citation{Alt2011}
\citation{Clinch2014}
\citation{Styliaras2007}
\citation{Alt2011}
\citation{Clinch2014}
\@writefile{brf}{\backcite{Alt2011}{{10}{3.3}{section.3.3}}}
\@writefile{brf}{\backcite{Clinch2014}{{10}{3.3}{section.3.3}}}
\@writefile{brf}{\backcite{Styliaras2007}{{10}{3.3}{section.3.3}}}
\@writefile{brf}{\backcite{Alt2011}{{10}{3.3}{section.3.3}}}
\@writefile{brf}{\backcite{Clinch2014}{{10}{3.3}{section.3.3}}}
\citation{Kubitza2015n}
\@writefile{toc}{\contentsline {chapter}{\numberline {4}Concept}{11}{chapter.4}}
\@writefile{lof}{\addvspace {10\p@ }}
\@writefile{lot}{\addvspace {10\p@ }}
\@writefile{lol}{\addvspace {10\p@ }}
\@writefile{loalgorithm}{\addvspace {10\p@ }}
\@writefile{loa}{\addvspace {10\p@ }}
\@writefile{loListing}{\addvspace {10\p@ }}
\@writefile{code}{\addvspace {10\p@ }}
\@writefile{loAlgorithmus}{\addvspace {10\p@ }}
\@writefile{alg}{\addvspace {10\p@ }}
\newlabel{chap:concept}{{4}{11}{Concept}{chapter.4}{}}
\newlabel{chap:concept@cref}{{[chapter][4][]4}{11}}
\@writefile{toc}{\contentsline {section}{\numberline {4.1}Reducing technological complexity}{12}{section.4.1}}
\@writefile{brf}{\backcite{Kubitza2015n}{{12}{4.1}{section.4.1}}}
\@writefile{toc}{\contentsline {section}{\numberline {4.2}Content Creation}{12}{section.4.2}}
\@writefile{toc}{\contentsline {section}{\numberline {4.3}On-Site Editing}{12}{section.4.3}}
\@writefile{toc}{\contentsline {section}{\numberline {4.4}Interactivity Scripting}{13}{section.4.4}}
\@writefile{toc}{\contentsline {section}{\numberline {4.5}Scenarios}{13}{section.4.5}}
\@writefile{toc}{\contentsline {subsection}{\numberline {4.5.1}Scenario I - Cultural Heritage}{13}{subsection.4.5.1}}
\@writefile{lof}{\contentsline {figure}{\numberline {4.1}{\ignorespaces The content creation/adaption cycle of cultural heritage professionals\relax }}{14}{figure.caption.11}}
\newlabel{fig:cycle_1}{{4.1}{14}{The content creation/adaption cycle of cultural heritage professionals\relax }{figure.caption.11}{}}
\newlabel{fig:cycle_1@cref}{{[figure][1][4]4.1}{14}}
\@writefile{toc}{\contentsline {subsection}{\numberline {4.5.2}Scenario II - Retail Store}{17}{subsection.4.5.2}}
\@writefile{toc}{\contentsline {subsection}{\numberline {4.5.3}Scenario III - Home}{18}{subsection.4.5.3}}
\@writefile{toc}{\contentsline {chapter}{\numberline {5}Implementation}{21}{chapter.5}}
\@writefile{lof}{\addvspace {10\p@ }}
\@writefile{lot}{\addvspace {10\p@ }}
\@writefile{lol}{\addvspace {10\p@ }}
\@writefile{loalgorithm}{\addvspace {10\p@ }}
\@writefile{loa}{\addvspace {10\p@ }}
\@writefile{loListing}{\addvspace {10\p@ }}
\@writefile{code}{\addvspace {10\p@ }}
\@writefile{loAlgorithmus}{\addvspace {10\p@ }}
\@writefile{alg}{\addvspace {10\p@ }}
\newlabel{chap:implementation}{{5}{21}{Implementation}{chapter.5}{}}
\newlabel{chap:implementation@cref}{{[chapter][5][]5}{21}}
\@writefile{toc}{\contentsline {section}{\numberline {5.1}Architecture}{21}{section.5.1}}
\newlabel{architecture}{{5.1}{21}{Architecture}{section.5.1}{}}
\newlabel{architecture@cref}{{[section][1][5]5.1}{21}}
\@writefile{lof}{\contentsline {figure}{\numberline {5.1}{\ignorespaces The architecture of the VEII toolkit and the connection to meSchup\relax }}{22}{figure.caption.12}}
\newlabel{fig:architecture}{{5.1}{22}{The architecture of the VEII toolkit and the connection to meSchup\relax }{figure.caption.12}{}}
\newlabel{fig:architecture@cref}{{[figure][1][5]5.1}{22}}
\@writefile{lof}{\contentsline {figure}{\numberline {5.2}{\ignorespaces Flow chart explaining how a VEII user creates and deploys an interactive installation on a display device\relax }}{23}{figure.caption.13}}
\newlabel{fig:flowchart}{{5.2}{23}{Flow chart explaining how a VEII user creates and deploys an interactive installation on a display device\relax }{figure.caption.13}{}}
\newlabel{fig:flowchart@cref}{{[figure][2][5]5.2}{23}}
\@writefile{toc}{\contentsline {section}{\numberline {5.2}User interface for creating interactive installations}{23}{section.5.2}}
\@writefile{lof}{\contentsline {figure}{\numberline {5.3}{\ignorespaces The main structure of the veii user-interface\relax }}{24}{figure.caption.14}}
\newlabel{fig:view}{{5.3}{24}{The main structure of the veii user-interface\relax }{figure.caption.14}{}}
\newlabel{fig:view@cref}{{[figure][3][5]5.3}{24}}
\@writefile{toc}{\contentsline {subsection}{\numberline {5.2.1}Settings}{24}{subsection.5.2.1}}
\@writefile{lof}{\contentsline {figure}{\numberline {5.4}{\ignorespaces The settings view of the VEII toolkit\relax }}{25}{figure.caption.15}}
\newlabel{fig:settings}{{5.4}{25}{The settings view of the VEII toolkit\relax }{figure.caption.15}{}}
\newlabel{fig:settings@cref}{{[figure][4][5]5.4}{25}}
\@writefile{toc}{\contentsline {subsection}{\numberline {5.2.2}Content Management}{25}{subsection.5.2.2}}
\@writefile{lof}{\contentsline {figure}{\numberline {5.5}{\ignorespaces The Conent Management view for images within VEII\relax }}{26}{figure.caption.16}}
\newlabel{fig:cms}{{5.5}{26}{The Conent Management view for images within VEII\relax }{figure.caption.16}{}}
\newlabel{fig:cms@cref}{{[figure][5][5]5.5}{26}}
\@writefile{lof}{\contentsline {figure}{\numberline {5.6}{\ignorespaces The Project Management view in the VEII toolkit\relax }}{26}{figure.caption.17}}
\newlabel{fig:pm}{{5.6}{26}{The Project Management view in the VEII toolkit\relax }{figure.caption.17}{}}
\newlabel{fig:pm@cref}{{[figure][6][5]5.6}{26}}
\@writefile{toc}{\contentsline {subsection}{\numberline {5.2.3}Project Management}{26}{subsection.5.2.3}}
\@writefile{code}{\contentsline {Listing}{\numberline {5.1}{\ignorespaces Example JavaScript code for showing a specific Slide after triggering an NFC-Reader\relax }}{27}{Listing.caption.18}}
\newlabel{lst:example-code}{{5.1}{27}{Example JavaScript code for showing a specific Slide after triggering an NFC-Reader\relax }{Listing.caption.18}{}}
\newlabel{lst:example-code@cref}{{[Listing][1][5]5.1}{27}}
\@writefile{toc}{\contentsline {subsection}{\numberline {5.2.4}Slide Editor}{27}{subsection.5.2.4}}
\@writefile{toc}{\contentsline {subsection}{\numberline {5.2.5}Rule Editor}{27}{subsection.5.2.5}}
\@writefile{lof}{\contentsline {figure}{\numberline {5.7}{\ignorespaces Example story for configuring a behavior rule using a NFC-Reader \ref  {lst:json-mapper}\relax }}{28}{figure.caption.19}}
\newlabel{fig:mapperrule}{{5.7}{28}{Example story for configuring a behavior rule using a NFC-Reader \ref {lst:json-mapper}\relax }{figure.caption.19}{}}
\newlabel{fig:mapperrule@cref}{{[figure][7][5]5.7}{28}}
\@writefile{toc}{\contentsline {section}{\numberline {5.3}Display client running on target device}{28}{section.5.3}}
\@writefile{toc}{\contentsline {section}{\numberline {5.4}Deployment}{28}{section.5.4}}
\@writefile{lof}{\contentsline {figure}{\numberline {5.8}{\ignorespaces Technical implementation of the on-site editing approach\relax }}{29}{figure.caption.20}}
\newlabel{fig:onsiteediting}{{5.8}{29}{Technical implementation of the on-site editing approach\relax }{figure.caption.20}{}}
\newlabel{fig:onsiteediting@cref}{{[figure][8][5]5.8}{29}}
\@writefile{toc}{\contentsline {section}{\numberline {5.5}Project Modes}{29}{section.5.5}}
\newlabel{sec:projectmodes}{{5.5}{29}{Project Modes}{section.5.5}{}}
\newlabel{sec:projectmodes@cref}{{[section][5][5]5.5}{29}}
\@writefile{toc}{\contentsline {section}{\numberline {5.6}On-Site Editing Approach}{29}{section.5.6}}
\newlabel{sec:onsiteeditingapproach}{{5.6}{29}{On-Site Editing Approach}{section.5.6}{}}
\newlabel{sec:onsiteeditingapproach@cref}{{[section][6][5]5.6}{29}}
\@writefile{code}{\contentsline {Listing}{\numberline {5.2}{\ignorespaces An example JSON-object for on-site editing send while moving a content entity\relax }}{30}{Listing.caption.21}}
\newlabel{lst:json-ose}{{5.2}{30}{An example JSON-object for on-site editing send while moving a content entity\relax }{Listing.caption.21}{}}
\newlabel{lst:json-ose@cref}{{[Listing][2][5]5.2}{30}}
\@writefile{toc}{\contentsline {section}{\numberline {5.7}Interactivity Scripting Approach}{31}{section.5.7}}
\newlabel{ISA}{{5.7}{31}{Interactivity Scripting Approach}{section.5.7}{}}
\newlabel{ISA@cref}{{[section][7][5]5.7}{31}}
\@writefile{lof}{\contentsline {figure}{\numberline {5.9}{\ignorespaces The VEII Rule Editor with code shown and opened side panel\relax }}{32}{figure.caption.22}}
\newlabel{fig:ruleeditor}{{5.9}{32}{The VEII Rule Editor with code shown and opened side panel\relax }{figure.caption.22}{}}
\newlabel{fig:ruleeditor@cref}{{[figure][9][5]5.9}{32}}
\@writefile{lof}{\contentsline {figure}{\numberline {5.10}{\ignorespaces Technical implementation of the interactivity scripting approach\relax }}{32}{figure.caption.23}}
\newlabel{fig:isa}{{5.10}{32}{Technical implementation of the interactivity scripting approach\relax }{figure.caption.23}{}}
\newlabel{fig:isa@cref}{{[figure][10][5]5.10}{32}}
\@writefile{code}{\contentsline {Listing}{\numberline {5.3}{\ignorespaces An example mapper-object of a behavior rule with a text box and a NFC-Reader defined.\relax }}{33}{Listing.caption.24}}
\newlabel{lst:json-mapper}{{5.3}{33}{An example mapper-object of a behavior rule with a text box and a NFC-Reader defined.\relax }{Listing.caption.24}{}}
\newlabel{lst:json-mapper@cref}{{[Listing][3][5]5.3}{33}}
\@writefile{toc}{\contentsline {section}{\numberline {5.8}Summary and Discussion}{33}{section.5.8}}
\@writefile{toc}{\contentsline {chapter}{\numberline {6}Evaluation}{35}{chapter.6}}
\@writefile{lof}{\addvspace {10\p@ }}
\@writefile{lot}{\addvspace {10\p@ }}
\@writefile{lol}{\addvspace {10\p@ }}
\@writefile{loalgorithm}{\addvspace {10\p@ }}
\@writefile{loa}{\addvspace {10\p@ }}
\@writefile{loListing}{\addvspace {10\p@ }}
\@writefile{code}{\addvspace {10\p@ }}
\@writefile{loAlgorithmus}{\addvspace {10\p@ }}
\@writefile{alg}{\addvspace {10\p@ }}
\newlabel{chap:casestudies}{{6}{35}{Evaluation}{chapter.6}{}}
\newlabel{chap:casestudies@cref}{{[chapter][6][]6}{35}}
\@writefile{toc}{\contentsline {section}{\numberline {6.1}Case Study I - Pre Study}{35}{section.6.1}}
\@writefile{toc}{\contentsline {subsection}{\numberline {6.1.1}Participants and Setup}{35}{subsection.6.1.1}}
\newlabel{fig:setup_d}{{6.1a}{36}{Subfigure 6 6.1a}{subfigure.6.1.1}{}}
\newlabel{sub@fig:setup_d}{{(a)}{a}{Subfigure 6 6.1a\relax }{subfigure.6.1.1}{}}
\newlabel{fig:setup_d@cref}{{[subfigure][1][6,1]6.1a}{36}}
\newlabel{fig:setup_1}{{6.1b}{36}{Subfigure 6 6.1b}{subfigure.6.1.2}{}}
\newlabel{sub@fig:setup_1}{{(b)}{b}{Subfigure 6 6.1b\relax }{subfigure.6.1.2}{}}
\newlabel{fig:setup_1@cref}{{[subfigure][2][6,1]6.1b}{36}}
\@writefile{lof}{\contentsline {figure}{\numberline {6.1}{\ignorespaces The general setup of the pre-study\relax }}{36}{figure.caption.25}}
\@writefile{lof}{\contentsline {subfigure}{\numberline{(a)}{\ignorespaces {The desktop set up in one room}}}{36}{subfigure.1.1}}
\@writefile{lof}{\contentsline {subfigure}{\numberline{(b)}{\ignorespaces {The hardware for the installation set up in the other room }}}{36}{subfigure.1.2}}
\@writefile{toc}{\contentsline {subsection}{\numberline {6.1.2}Procedure and Tasks}{36}{subsection.6.1.2}}
\@writefile{toc}{\contentsline {subsection}{\numberline {6.1.3}Study results and discussion}{37}{subsection.6.1.3}}
\@writefile{toc}{\contentsline {subsubsection}{\numberline {6.1.3.1}Creation strategies}{37}{subsubsection.6.1.3.1}}
\newlabel{fig:study1user}{{6.2a}{38}{Subfigure 6 6.2a}{subfigure.6.2.1}{}}
\newlabel{sub@fig:study1user}{{(a)}{a}{Subfigure 6 6.2a\relax }{subfigure.6.2.1}{}}
\newlabel{fig:study1user@cref}{{[subfigure][1][6,2]6.2a}{38}}
\newlabel{fig:study2user}{{6.2b}{38}{Subfigure 6 6.2b}{subfigure.6.2.2}{}}
\newlabel{sub@fig:study2user}{{(b)}{b}{Subfigure 6 6.2b\relax }{subfigure.6.2.2}{}}
\newlabel{fig:study2user@cref}{{[subfigure][2][6,2]6.2b}{38}}
\@writefile{lof}{\contentsline {figure}{\numberline {6.2}{\ignorespaces A participant during the pre-study\relax }}{38}{figure.caption.26}}
\@writefile{lof}{\contentsline {subfigure}{\numberline{(a)}{\ignorespaces {A participant creating content on a desktop computer.}}}{38}{subfigure.2.1}}
\@writefile{lof}{\contentsline {subfigure}{\numberline{(b)}{\ignorespaces {A participant using a mobile device to tweak content on-site}}}{38}{subfigure.2.2}}
\@writefile{toc}{\contentsline {subsubsection}{\numberline {6.1.3.2}Working with the system}{38}{subsubsection.6.1.3.2}}
\@writefile{lof}{\contentsline {figure}{\numberline {6.3}{\ignorespaces The results of the pre-study SUS questionnaire by participants\relax }}{39}{figure.caption.27}}
\newlabel{fig:prestudyresult1}{{6.3}{39}{The results of the pre-study SUS questionnaire by participants\relax }{figure.caption.27}{}}
\newlabel{fig:prestudyresult1@cref}{{[figure][3][6]6.3}{39}}
\@writefile{toc}{\contentsline {subsubsection}{\numberline {6.1.3.3}Feedback}{40}{subsubsection.6.1.3.3}}
\@writefile{toc}{\contentsline {subsubsection}{\numberline {6.1.3.4}Improvements}{41}{subsubsection.6.1.3.4}}
\newlabel{fig:setup}{{6.4a}{42}{Subfigure 6 6.4a}{subfigure.6.4.1}{}}
\newlabel{sub@fig:setup}{{(a)}{a}{Subfigure 6 6.4a\relax }{subfigure.6.4.1}{}}
\newlabel{fig:setup@cref}{{[subfigure][1][6,4]6.4a}{42}}
\newlabel{fig:example}{{6.4b}{42}{Subfigure 6 6.4b}{subfigure.6.4.2}{}}
\newlabel{sub@fig:example}{{(b)}{b}{Subfigure 6 6.4b\relax }{subfigure.6.4.2}{}}
\newlabel{fig:example@cref}{{[subfigure][2][6,4]6.4b}{42}}
\newlabel{fig:kuksa}{{6.4c}{42}{Subfigure 6 6.4c}{subfigure.6.4.3}{}}
\newlabel{sub@fig:kuksa}{{(c)}{c}{Subfigure 6 6.4c\relax }{subfigure.6.4.3}{}}
\newlabel{fig:kuksa@cref}{{[subfigure][3][6,4]6.4c}{42}}
\@writefile{lof}{\contentsline {figure}{\numberline {6.4}{\ignorespaces The general setup of the study\relax }}{42}{figure.caption.28}}
\@writefile{lof}{\contentsline {subfigure}{\numberline{(a)}{\ignorespaces {The participants desktop computer.}}}{42}{subfigure.4.1}}
\@writefile{lof}{\contentsline {subfigure}{\numberline{(b)}{\ignorespaces {A projector augments a plinth with an artefact on it.}}}{42}{subfigure.4.2}}
\@writefile{lof}{\contentsline {subfigure}{\numberline{(c)}{\ignorespaces {The tangible cup and the two NFC-Reader}}}{42}{subfigure.4.3}}
\@writefile{toc}{\contentsline {section}{\numberline {6.2}Case Study II - Cultural Heritage}{42}{section.6.2}}
\@writefile{toc}{\contentsline {subsection}{\numberline {6.2.1}Participants and Setup}{42}{subsection.6.2.1}}
\@writefile{toc}{\contentsline {subsection}{\numberline {6.2.2}Procedure and Tasks}{43}{subsection.6.2.2}}
\newlabel{fig:user}{{6.5a}{44}{Subfigure 6 6.5a}{subfigure.6.5.1}{}}
\newlabel{sub@fig:user}{{(a)}{a}{Subfigure 6 6.5a\relax }{subfigure.6.5.1}{}}
\newlabel{fig:user@cref}{{[subfigure][1][6,5]6.5a}{44}}
\newlabel{fig:example}{{6.5b}{44}{Subfigure 6 6.5b}{subfigure.6.5.2}{}}
\newlabel{sub@fig:example}{{(b)}{b}{Subfigure 6 6.5b\relax }{subfigure.6.5.2}{}}
\newlabel{fig:example@cref}{{[subfigure][2][6,5]6.5b}{44}}
\newlabel{fig:mo_me}{{6.5c}{44}{Subfigure 6 6.5c}{subfigure.6.5.3}{}}
\newlabel{sub@fig:mo_me}{{(c)}{c}{Subfigure 6 6.5c\relax }{subfigure.6.5.3}{}}
\newlabel{fig:mo_me@cref}{{[subfigure][3][6,5]6.5c}{44}}
\@writefile{lof}{\contentsline {figure}{\numberline {6.5}{\ignorespaces Participant during the study\relax }}{44}{figure.caption.29}}
\@writefile{lof}{\contentsline {subfigure}{\numberline{(a)}{\ignorespaces {Participant composes content on desktop computer}}}{44}{subfigure.5.1}}
\@writefile{lof}{\contentsline {subfigure}{\numberline{(b)}{\ignorespaces {Example content of a participant}}}{44}{subfigure.5.2}}
\@writefile{lof}{\contentsline {subfigure}{\numberline{(c)}{\ignorespaces {Cup augmented with projected text}}}{44}{subfigure.5.3}}
\@writefile{toc}{\contentsline {subsection}{\numberline {6.2.3}Study results and discussion}{45}{subsection.6.2.3}}
\@writefile{toc}{\contentsline {subsubsection}{\numberline {6.2.3.1}Creation strategies}{45}{subsubsection.6.2.3.1}}
\@writefile{lof}{\contentsline {figure}{\numberline {6.6}{\ignorespaces The results of the SUS questionnaire by participants\relax }}{46}{figure.caption.30}}
\newlabel{fig:studyresult2}{{6.6}{46}{The results of the SUS questionnaire by participants\relax }{figure.caption.30}{}}
\newlabel{fig:studyresult2@cref}{{[figure][6][6]6.6}{46}}
\@writefile{toc}{\contentsline {subsubsection}{\numberline {6.2.3.2}Working with the system}{46}{subsubsection.6.2.3.2}}
\@writefile{toc}{\contentsline {section}{\numberline {6.3}Summary}{48}{section.6.3}}
\@writefile{toc}{\contentsline {chapter}{\numberline {7}Discussion}{51}{chapter.7}}
\@writefile{lof}{\addvspace {10\p@ }}
\@writefile{lot}{\addvspace {10\p@ }}
\@writefile{lol}{\addvspace {10\p@ }}
\@writefile{loalgorithm}{\addvspace {10\p@ }}
\@writefile{loa}{\addvspace {10\p@ }}
\@writefile{loListing}{\addvspace {10\p@ }}
\@writefile{code}{\addvspace {10\p@ }}
\@writefile{loAlgorithmus}{\addvspace {10\p@ }}
\@writefile{alg}{\addvspace {10\p@ }}
\newlabel{chap:discussion}{{7}{51}{Discussion}{chapter.7}{}}
\newlabel{chap:discussion@cref}{{[chapter][7][]7}{51}}
\@writefile{toc}{\contentsline {chapter}{\numberline {8}Conclusion and Future Work}{53}{chapter.8}}
\@writefile{lof}{\addvspace {10\p@ }}
\@writefile{lot}{\addvspace {10\p@ }}
\@writefile{lol}{\addvspace {10\p@ }}
\@writefile{loalgorithm}{\addvspace {10\p@ }}
\@writefile{loa}{\addvspace {10\p@ }}
\@writefile{loListing}{\addvspace {10\p@ }}
\@writefile{code}{\addvspace {10\p@ }}
\@writefile{loAlgorithmus}{\addvspace {10\p@ }}
\@writefile{alg}{\addvspace {10\p@ }}
\newlabel{chap:conclusion}{{8}{53}{Conclusion and Future Work}{chapter.8}{}}
\newlabel{chap:conclusion@cref}{{[chapter][8][]8}{53}}
\@writefile{toc}{\contentsline {chapter}{\nonumberline Appendix}{57}{appendix*.33}}
\@writefile{lof}{\addvspace {10\p@ }}
\@writefile{lot}{\addvspace {10\p@ }}
\@writefile{lol}{\addvspace {10\p@ }}
\@writefile{loalgorithm}{\addvspace {10\p@ }}
\@writefile{loa}{\addvspace {10\p@ }}
\@writefile{loListing}{\addvspace {10\p@ }}
\@writefile{code}{\addvspace {10\p@ }}
\@writefile{loAlgorithmus}{\addvspace {10\p@ }}
\@writefile{alg}{\addvspace {10\p@ }}
\@writefile{toc}{\contentsline {section}{\numberline {.1}Database Model}{58}{section.Alph0.1}}
\newlabel{database}{{.1}{58}{Database Model}{section.Alph0.1}{}}
\newlabel{database@cref}{{[subappendix][1][2147483647,0].1}{58}}
\@writefile{toc}{\contentsline {section}{\numberline {.2}Consent Form}{59}{section.Alph0.2}}
\newlabel{consentform}{{.2}{59}{Consent Form}{section.Alph0.2}{}}
\newlabel{consentform@cref}{{[subappendix][2][2147483647,0].2}{59}}
\@writefile{toc}{\contentsline {section}{\numberline {.3}Gerneral Background Questionnaire}{60}{section.Alph0.3}}
\newlabel{generalbackground}{{.3}{60}{Gerneral Background Questionnaire}{section.Alph0.3}{}}
\newlabel{generalbackground@cref}{{[subappendix][3][2147483647,0].3}{60}}
\@writefile{toc}{\contentsline {section}{\numberline {.4}System Usablity Scale Questionnaire}{62}{section.Alph0.4}}
\newlabel{prestudy}{{.4}{62}{System Usablity Scale Questionnaire}{section.Alph0.4}{}}
\newlabel{prestudy@cref}{{[subappendix][4][2147483647,0].4}{62}}
\bibstyle{bibliography/IAAS}
\bibdata{bibliography/mendeley/library}
\bibcite{Alt2011}{AKB{$^{+}$}11}
\bibcite{Benavides2014}{BAM14}
\bibcite{Campbell2014}{CFH14}
\bibcite{Choi2013}{CKL13}
\bibcite{Clinch2014}{CMG{$^{+}$}14}
\bibcite{Kubitza2013a}{KPDS13}
\bibcite{Kubitza2015n}{KS15}
\@writefile{toc}{\contentsline {chapter}{\nonumberline Bibliography}{65}{appendix*.34}}
\bibcite{Pinhanez2001a}{Pin01}
\bibcite{Sukaviriya2003}{SPK{$^{+}$}03}
\bibcite{Styliaras2007}{Sty07}
\bibcite{Tokuda2003a}{TIS{$^{+}$}03}
